{
    "FB_appId":"1019650804875107",
    "FB_uploadAccessToken": "EAAYsfZAxiFmMBAKZBhZBHUG2Iga47ibsHNpfGR3L2Na4PnH3ErqPKsatk38FYPJjBqFcgbq7jBFE1RkQYZANuDXendKZAluIdB2GseFZCMGsY1sZCYqvu7OHJlM9K0e2ttoXtzc6F4i55vcijEHIEeQJtBvIqJ4XLCzmoSFX2XaLQZDZD"
}